#==================================================================================================================
# SCRIPT GNUPLOT
#==================================================================================================================


# COLOR DEFINITIONS
#--------------------------------------------------------------------------------------
set border linewidth 1.5
set style line 1 lt 1 lc rgb '#D73027' lw 2 # red
set style line 2 lt 1 lc rgb '#1B7837' lw 2 pt 7 ps 2 # dark green
set style line 3 lt 1 lc rgb '#FDAE61' lw 2 pt 7 ps 2# 'orange'
set style line 4 lt 1 lc rgb '#74ADD1' lw 2 # medium blue
set style line 5 lt 1 lc rgb '#9970AB' lw 2 pt 7 ps 2# medium purple
set style line 6 lt 1 lc rgb '#00FFFF' lw 2 pt 7 ps 2 # cyan
set style line 7 lt 1 lc rgb '#FF8C00' lw 2 pt 7 ps 2  #dark orange
set style line 10 lt 1 lc rgb '#00FFFF' lw 2 # dark cyan
# set style line 1 lc rgb '#800000' lt 1 lw 2
# set style line 2 lc rgb '#ff0000' lt 1 lw 2
# set style line 3 lc rgb '#ff4500' lt 1 lw 2
# set style line 4 lc rgb '#ffa500' lt 1 lw 2
# set style line 5 lc rgb '#006400' lt 1 lw 2
# set style line 6 lc rgb '#0000ff' lt 1 lw 2
# set style line 7 lc rgb '#9400d3' lt 1 lw 2


# ARGUMENTS
#--------------------------------------------------------------------------------------
pathdir = ARG1
namefile = 'Jcr_sorted.txt'
names  = system('ls -d -1 ./'.pathdir.'*/ | tr "\n" "\0" | xargs -0 -n 1 basename')
#names = system('ls -d ./'.pathdir.'*/ | cut -d ')


# GENERAL FUNCTIONS
#--------------------------------------------------------------------------------------
TheTitle(name) = sprintf("echo '%s' | sed 's/[a-z]//g;s/[\/*,._,]/ /g;s/  //g'",name)


# SET TERMINAL CONFIGURATION
#--------------------------------------------------------------------------------------
set terminal pdf size 12,8 font 'Verdana,20' enhanced color lw 2 rounded
# >>> Set output name of file
set output pathdir.'PLOT_Jcritics.pdf'



# SET GENERAL (global) PARAMETERS OF THE PLOTS
#--------------------------------------------------------------------------------------

#  *** Axes ***
#set style line 11 lc rgb '#808080' lt 1
set border lw 1
#set border 3 back ls 11
#set tics nomirror out scale 0.75

#  *** Grid ***
set style line 102 lc rgb '#d6d7d9' lt 0 lw 1
set grid back ls 102
# set style line 12 lc rgb'#808080' lt 0 lw 1
# set grid back
# set grid back ls 12
#set xtics 1 font ",8"
#set ytics 1 font ",8"

#  *** Axes Label ***
#set xlabel "Effective Rewirings (x 10^6)" font ",35"
set ylabel "J_{critic}" font ",35" offset -1
# set title "Profile -1 1 -1 1" font ",18"

#  **** Margins ***
set rmargin 4
set bmargin 7

#  *** Axes format ***
# set format x '%.1tx10^{%T}'
set xtics rotate font ",24"
set xtics format "{/:Bold %.0s}"
set ytics font ",26"

#  *** Configurating palette ***
set loadpath '../ConfigGnuplot'
# load 'rdylbu.pal'
# load 'jet.pal'
# load 'moreland.pal'
# load 'set1.pal'
# load 'spectral.pal'


# ADDITIONAL CONFIGURATIONS
#---------------------------------------------------------------------------------

#  *** LabelBox of each plot ***
title = 'Before After'
set key center left box font ',28' spacing 5 width -3 opaque

#  *** Error bars configuration ***
# set style line 9 lt 1 lc rgb '#252525' lw 2 ps 0.7 pt 7 # dark grey


# PLOT JCRITICS FOR EACH PROFILE
#--------------------------------------------------------------------------------------

# >>> text file with data
ifile = pathdir.namefile


# CONFIGURATION OF BROKEN AXES
#-----------------------------------------
# >>> White rectangle to cover the plot
#set object 1 polygon from first 9.4,17 to 9.4,30 to 9.6,30 to 9.6,17 to 9.4,17 front
#set object 1 fillstyle solid 0.0 noborder front
set object 1 rect from 9.4,17 to 9.6,30
set object 1 rect fc rgb 'red' fillstyle solid 0.0 noborder front

# >>> Draw lines that indicate break axis
stats "< tail -n +4 ".ifile." | head -n 10 && tail ".ifile u 2 nooutput
set arrow 1  from 9.4,floor(STATS_min) to 9.6,floor(STATS_min) nohead front lw 1. lc rgb "white"
set arrow 2  from 9.4,ceil(STATS_max) to 9.6,ceil(STATS_max) nohead front lw 1. lc rgb "white"
set arrow 3  from 9.3,floor(STATS_min)-0.1 to 9.5,floor(STATS_min) + 0.1 nohead front lw 1.5
set arrow 4  from 9.5,floor(STATS_min)-0.1 to 9.7,floor(STATS_min) + 0.1 nohead front lw 1.5
set arrow 5  from 9.3,ceil(STATS_max)-0.1 to 9.5,ceil(STATS_max) + 0.1 nohead front lw 1.5
set arrow 6  from 9.5,ceil(STATS_max)-0.1 to 9.7,ceil(STATS_max) + 0.1 nohead front lw 1.5


# >>> get the J0
col = 4
row = 4
stats  ifile every ::row::row using col nooutput
Joc = STATS_min
ylb = Joc*1.02
set label sprintf('J_{cr} = %.3f',Joc) at 3,ylb font ',35'

plot "< tail -n +4 ".ifile." | head -n 10 && tail ".ifile u 4 t 'Initial' w l ls 2 lw 4,\
"" u ($0):($0>=10?$2:1/0):xtic(1) t 'After- the most' w lp ls 5 lw 1.8,\
"" u ($0):($0>=10?$2:1/0):xtic(1) t '' w p pt 6 ps 2 lc 0,\
"" u ($0):($0<10?$2:1/0):xtic(1) t 'After- the least' w lp ls 7 lw 1.8,\
"" u ($0):($0<10?$2:1/0):xtic(1) t '' w p pt 6 ps 2 lc 0


unset out
reset
