22 32
2 42
34 32
47 31
30 37
15 18
11 44
36 38
16 48
48 47
5 26
38 7
23 15
4 34
26 28
36 16
8 3
32 39
5 15
14 13
9 4
18 42
11 6
38 46
12 25
24 7
9 48
26 19
30 17
37 38
33 36
28 44
17 30
19 5
19 43
4 27
29 47
25 14
22 9
30 5
17 40
34 34
32 2
36 28
4 22
3 8
17 42
24 2
24 9
34 29
34 46
37 24
36 10
28 36
10 7
28 28
6 21
34 44
7 36
48 37
26 2
26 4
6 29
2 2
39 34
45 35
40 2
15 45
17 30
39 44
38 46
26 2
15 13
38 26
19 29
38 43
34 22
31 9
21 46
15 37
32 15
43 25
40 7
18 21
45 46
8 39
49 27
6 34
15 48
22 15
11 47
34 49
50 8
23 26
31 10
9 41
32 50
22 50
38 24
13 6
21 4
37 25
13 27
17 21
15 30
19 48
31 43
3 31
6 44
34 30
46 22
27 21
26 36
25 36
50 27
12 46
14 49
23 9
43 8
14 26
10 45
44 26
6 29
46 2
42 25
38 17
30 11
14 22
21 46
38 15
19 35
35 34
17 12
26 34
38 13
37 7
32 17
6 43
46 36
22 39
12 21
27 14
30 5
48 40
46 45
31 20
38 15
41 23
41 23
39 30
43 22
2 24
3 40
6 2
28 16
48 48
47 12
37 15
48 6
36 30
31 23
22 48
47 11
21 18
42 15
27 50
32 26
23 6
40 4
16 3
22 17
6 48
37 19
23 46
13 22
29 10
39 22
36 27
32 21
16 33
7 47
12 12
45 30
15 11
9 27
19 5
9 27
40 37
50 43
16 45
11 50
48 33
17 46
6 43
47 30
32 36
36 7
31 20
38 34
44 32
37 50
43 47
45 28
50 47
14 16
9 45
43 11
45 12
37 3
13 37
40 42
26 31
50 9
42 19
29 19
14 45
15 18
45 42
27 3
5 38
41 34
22 10
38 24
14 44
4 28
27 7
24 19
27 4
24 10
7 14
16 48
26 37
24 3
3 39
7 29
37 38
6 17
33 31
23 33
26 22
48 11
2 40
3 33
48 27
9 11
38 15
41 34
47 17
41 31
9 24
2 45
37 36
5 35
47 26
26 19
46 17
36 16
48 9
17 48
7 40
15 22
19 34
31 38
2 46
2 17
45 27
43 22
11 50
6 19
38 37
17 41
49 45
35 41
30 6
31 37
31 13
34 20
34 32
14 8
28 39
2 3
13 42
12 25
19 28
16 38
48 38
46 42
30 48
44 13
9 31
47 38
19 9
49 12
42 26
10 24
8 23
7 7
7 28
45 19
3 5
15 47
35 2
50 7
10 39
18 48
38 38
38 42
7 11
33 37
42 17
50 18
42 28
7 21
12 4
25 21
31 44
19 31
4 4
28 23
4 28
43 50
49 41
47 48
25 26
17 37
38 36
45 14
3 32
4 25
39 3
22 32
21 17
41 42
10 26
17 22
12 33
26 23
44 26
7 38
11 15
39 17
34 38
12 26
39 13
21 7
24 45
48 43
17 38
21 16
47 34
13 41
48 13
17 10
34 36
30 41
45 17
27 35
45 8
41 6
10 24
42 41
25 29
47 32
49 43
28 12
42 16
18 23
28 28
23 25
30 3
29 26
4 19
26 38
13 34
39 24
45 39
3 8
28 33
44 26
33 14
14 18
21 39
17 6
9 38
45 26
44 16
22 30
48 21
12 4
32 14
5 16
43 26
29 27
38 12
7 6
24 34
49 40
40 14
42 19
8 22
31 12
16 49
33 35
24 42
9 22
45 25
5 5
43 49
30 9
33 29
7 45
27 31
46 12
26 39
3 33
8 23
20 50
50 22
3 14
31 16
25 47
16 16
28 9
42 31
35 48
36 48
41 38
16 50
26 40
32 6
31 41
16 30
19 48
24 17
30 45
20 50
47 32
18 32
22 3
48 45
36 10
48 9
33 30
9 41
2 31
11 31
27 6
2 26
40 9
22 2
26 37
34 35
35 34
7 12
41 25
17 42
46 47
46 49
37 45
26 38
7 39
17 38
44 29
29 31
50 32
28 3
29 47
40 24
39 19
21 49
26 31
14 38
22 6
22 28
8 17
2 24
25 17
39 7
29 40
24 43
50 45
20 7
12 50
27 24
26 47
37 7
35 39
34 7
27 2
42 35
50 26
43 37
35 17
46 31
31 43
25 27
23 14
25 14
39 26
10 9
