7.000000000000000666e-01 1.003749999999999920e+00
4.000000000000000222e-01 1.004750000000000032e+00
1.000000000000000056e-01 1.005249999999999977e+00
2.300000000000000266e+00 1.006000000000000005e+00
1.200000000000000178e+00 1.008750000000000036e+00
1.900000000000000133e+00 1.008750000000000036e+00
2.900000000000000355e+00 1.008999999999999897e+00
3.600000000000000089e+00 1.009249999999999980e+00
1.600000000000000089e+00 1.010250000000000092e+00
3.100000000000000089e+00 1.010250000000000092e+00
1.800000000000000044e+00 1.012250000000000094e+00
3.000000000000000000e+00 1.013249999999999984e+00
2.200000000000000178e+00 1.014250000000000096e+00
1.700000000000000178e+00 1.014499999999999957e+00
1.000000000000000000e+00 1.015749999999999931e+00
6.000000000000000888e-01 1.016250000000000098e+00
3.800000000000000266e+00 1.018999999999999906e+00
2.600000000000000089e+00 1.022499999999999964e+00
5.300000000000000711e+00 1.023249999999999993e+00
5.800000000000000711e+00 1.026250000000000107e+00
4.000000000000000000e+00 1.026499999999999968e+00
3.300000000000000266e+00 1.027500000000000080e+00
2.000000000000000000e+00 1.028000000000000025e+00
4.299999999999999822e+00 1.028499999999999970e+00
9.000000000000000222e-01 1.028999999999999915e+00
4.100000000000000533e+00 1.030999999999999917e+00
2.700000000000000178e+00 1.032999999999999918e+00
4.200000000000000178e+00 1.032999999999999918e+00
1.300000000000000044e+00 1.033250000000000002e+00
2.500000000000000000e+00 1.033250000000000002e+00
4.800000000000000711e+00 1.036999999999999922e+00
2.100000000000000089e+00 1.037749999999999950e+00
2.400000000000000355e+00 1.038499999999999979e+00
3.400000000000000355e+00 1.038499999999999979e+00
2.800000000000000266e+00 1.040249999999999897e+00
4.600000000000000533e+00 1.040249999999999897e+00
1.500000000000000000e+00 1.040499999999999980e+00
5.400000000000000355e+00 1.041500000000000092e+00
4.900000000000000355e+00 1.044000000000000039e+00
1.400000000000000133e+00 1.044999999999999929e+00
4.500000000000000000e+00 1.045250000000000012e+00
5.000000000000000000e+00 1.048999999999999932e+00
5.700000000000000178e+00 1.050750000000000073e+00
3.500000000000000000e+00 1.051250000000000018e+00
3.700000000000000178e+00 1.051500000000000101e+00
6.800000000000000711e+00 1.052000000000000046e+00
4.400000000000000355e+00 1.052249999999999908e+00
3.200000000000000178e+00 1.052499999999999991e+00
5.200000000000000178e+00 1.052750000000000075e+00
3.900000000000000355e+00 1.052999999999999936e+00
5.500000000000000000e+00 1.054999999999999938e+00
6.100000000000000533e+00 1.057250000000000023e+00
6.200000000000000178e+00 1.058499999999999996e+00
6.500000000000000000e+00 1.062000000000000055e+00
5.100000000000000533e+00 1.062249999999999917e+00
5.600000000000000533e+00 1.062999999999999945e+00
6.000000000000000000e+00 1.064249999999999918e+00
6.600000000000000533e+00 1.068249999999999922e+00
7.900000000000000355e+00 1.071250000000000036e+00
7.200000000000000178e+00 1.071499999999999897e+00
6.400000000000000355e+00 1.072750000000000092e+00
9.700000000000001066e+00 1.074500000000000011e+00
7.800000000000000711e+00 1.074750000000000094e+00
7.000000000000000000e+00 1.074999999999999956e+00
6.700000000000000178e+00 1.076000000000000068e+00
7.100000000000000533e+00 1.078750000000000098e+00
9.000000000000000000e+00 1.079250000000000043e+00
1.010000000000000142e+01 1.079499999999999904e+00
6.900000000000000355e+00 1.079749999999999988e+00
7.500000000000000000e+00 1.079749999999999988e+00
5.900000000000000355e+00 1.080750000000000099e+00
8.200000000000001066e+00 1.080999999999999961e+00
8.900000000000000355e+00 1.083499999999999908e+00
4.700000000000000178e+00 1.084000000000000075e+00
7.400000000000000355e+00 1.085250000000000048e+00
6.300000000000000711e+00 1.086000000000000076e+00
8.500000000000000000e+00 1.088750000000000107e+00
8.400000000000000355e+00 1.089749999999999996e+00
9.099999999999999645e+00 1.093750000000000000e+00
8.099999999999999645e+00 1.095499999999999918e+00
8.300000000000000711e+00 1.097250000000000059e+00
1.000000000000000000e+01 1.098500000000000032e+00
7.700000000000000178e+00 1.098749999999999893e+00
8.000000000000000000e+00 1.100249999999999950e+00
9.600000000000001421e+00 1.102500000000000036e+00
9.200000000000001066e+00 1.104249999999999954e+00
9.400000000000000355e+00 1.104249999999999954e+00
1.080000000000000071e+01 1.106000000000000094e+00
7.600000000000000533e+00 1.110749999999999904e+00
8.599999999999999645e+00 1.112000000000000099e+00
1.150000000000000000e+01 1.112999999999999989e+00
9.800000000000000711e+00 1.113250000000000073e+00
9.300000000000000711e+00 1.113499999999999934e+00
1.060000000000000142e+01 1.114999999999999991e+00
8.700000000000001066e+00 1.117750000000000021e+00
8.800000000000000711e+00 1.120249999999999968e+00
1.100000000000000000e+01 1.121750000000000025e+00
1.240000000000000036e+01 1.122000000000000108e+00
7.300000000000000711e+00 1.122000000000000108e+00
1.170000000000000107e+01 1.122999999999999998e+00
1.190000000000000036e+01 1.122999999999999998e+00
1.160000000000000142e+01 1.123250000000000082e+00
1.020000000000000107e+01 1.126749999999999918e+00
1.070000000000000107e+01 1.126749999999999918e+00
1.130000000000000071e+01 1.127499999999999947e+00
1.040000000000000036e+01 1.132249999999999979e+00
1.250000000000000000e+01 1.133000000000000007e+00
1.230000000000000071e+01 1.133999999999999897e+00
1.090000000000000036e+01 1.135000000000000009e+00
1.110000000000000142e+01 1.135750000000000037e+00
1.210000000000000142e+01 1.140500000000000069e+00
9.500000000000000000e+00 1.141250000000000098e+00
1.180000000000000071e+01 1.141750000000000043e+00
9.900000000000000355e+00 1.141750000000000043e+00
1.050000000000000000e+01 1.142249999999999988e+00
1.030000000000000071e+01 1.145000000000000018e+00
1.260000000000000142e+01 1.149250000000000105e+00
1.350000000000000000e+01 1.149250000000000105e+00
1.270000000000000107e+01 1.152500000000000080e+00
1.120000000000000107e+01 1.155000000000000027e+00
1.140000000000000036e+01 1.155999999999999917e+00
1.220000000000000107e+01 1.158250000000000002e+00
1.320000000000000107e+01 1.162749999999999950e+00
1.300000000000000000e+01 1.169249999999999901e+00
1.310000000000000142e+01 1.171249999999999902e+00
1.290000000000000036e+01 1.177499999999999991e+00
1.280000000000000071e+01 1.181249999999999911e+00
1.330000000000000071e+01 1.182749999999999968e+00
1.200000000000000000e+01 1.186250000000000027e+00
1.480000000000000071e+01 1.189750000000000085e+00
1.400000000000000000e+01 1.189999999999999947e+00
1.360000000000000142e+01 1.190499999999999892e+00
1.410000000000000142e+01 1.191249999999999920e+00
1.430000000000000071e+01 1.192250000000000032e+00
1.380000000000000071e+01 1.193999999999999950e+00
1.530000000000000071e+01 1.193999999999999950e+00
1.390000000000000036e+01 1.199249999999999927e+00
1.470000000000000107e+01 1.201000000000000068e+00
1.510000000000000142e+01 1.201500000000000012e+00
1.520000000000000107e+01 1.204499999999999904e+00
1.340000000000000036e+01 1.204749999999999988e+00
1.580000000000000071e+01 1.205500000000000016e+00
1.450000000000000000e+01 1.210499999999999909e+00
1.440000000000000036e+01 1.213500000000000023e+00
1.600000000000000000e+01 1.215500000000000025e+00
1.420000000000000107e+01 1.217750000000000110e+00
1.590000000000000036e+01 1.217999999999999972e+00
1.460000000000000142e+01 1.218499999999999917e+00
1.500000000000000000e+01 1.218499999999999917e+00
1.540000000000000036e+01 1.219000000000000083e+00
1.370000000000000107e+01 1.219500000000000028e+00
1.560000000000000142e+01 1.231000000000000094e+00
1.570000000000000107e+01 1.231249999999999956e+00
1.490000000000000036e+01 1.239000000000000101e+00
1.619999999999999929e+01 1.242499999999999938e+00
1.669999999999999929e+01 1.245500000000000052e+00
1.710000000000000142e+01 1.250499999999999945e+00
1.640000000000000213e+01 1.250750000000000028e+00
1.630000000000000071e+01 1.251249999999999973e+00
1.730000000000000071e+01 1.252750000000000030e+00
1.550000000000000000e+01 1.255249999999999977e+00
1.610000000000000142e+01 1.257249999999999979e+00
1.690000000000000213e+01 1.266999999999999904e+00
1.719999999999999929e+01 1.270499999999999963e+00
1.650000000000000000e+01 1.270750000000000046e+00
1.760000000000000142e+01 1.271749999999999936e+00
1.660000000000000142e+01 1.272999999999999909e+00
1.740000000000000213e+01 1.284499999999999975e+00
1.769999999999999929e+01 1.287500000000000089e+00
1.780000000000000071e+01 1.288000000000000034e+00
1.810000000000000142e+01 1.288750000000000062e+00
1.850000000000000000e+01 1.288999999999999924e+00
1.750000000000000000e+01 1.294249999999999901e+00
1.700000000000000000e+01 1.294750000000000068e+00
1.790000000000000213e+01 1.299250000000000016e+00
1.680000000000000071e+01 1.312249999999999917e+00
1.840000000000000213e+01 1.312750000000000083e+00
1.890000000000000213e+01 1.314000000000000057e+00
1.900000000000000000e+01 1.318750000000000089e+00
1.960000000000000142e+01 1.318999999999999950e+00
1.830000000000000071e+01 1.321499999999999897e+00
1.950000000000000000e+01 1.322249999999999925e+00
1.920000000000000284e+01 1.323499999999999899e+00
1.819999999999999929e+01 1.333749999999999991e+00
1.860000000000000142e+01 1.336249999999999938e+00
1.800000000000000000e+01 1.336750000000000105e+00
1.910000000000000142e+01 1.336999999999999966e+00
1.980000000000000071e+01 1.336999999999999966e+00
1.869999999999999929e+01 1.338249999999999940e+00
2.020000000000000284e+01 1.339749999999999996e+00
1.880000000000000071e+01 1.346749999999999892e+00
2.040000000000000213e+01 1.352999999999999980e+00
2.030000000000000071e+01 1.356000000000000094e+00
1.930000000000000071e+01 1.357499999999999929e+00
1.990000000000000213e+01 1.367750000000000021e+00
1.940000000000000213e+01 1.372000000000000108e+00
2.070000000000000284e+01 1.380249999999999977e+00
2.080000000000000071e+01 1.386500000000000066e+00
1.970000000000000284e+01 1.387999999999999901e+00
2.140000000000000213e+01 1.389499999999999957e+00
2.110000000000000142e+01 1.391750000000000043e+00
2.150000000000000000e+01 1.398500000000000076e+00
2.000000000000000000e+01 1.403000000000000025e+00
2.050000000000000000e+01 1.408250000000000002e+00
2.100000000000000000e+01 1.413750000000000062e+00
2.010000000000000142e+01 1.415499999999999980e+00
2.120000000000000284e+01 1.417000000000000037e+00
2.090000000000000213e+01 1.426749999999999963e+00
2.170000000000000284e+01 1.429999999999999938e+00
2.160000000000000142e+01 1.432250000000000023e+00
2.200000000000000000e+01 1.433750000000000080e+00
2.230000000000000071e+01 1.435249999999999915e+00
2.240000000000000213e+01 1.439999999999999947e+00
2.210000000000000142e+01 1.449500000000000011e+00
2.060000000000000142e+01 1.451750000000000096e+00
2.260000000000000142e+01 1.454499999999999904e+00
2.130000000000000071e+01 1.455249999999999932e+00
2.180000000000000071e+01 1.469000000000000083e+00
2.320000000000000284e+01 1.469249999999999945e+00
2.290000000000000213e+01 1.469500000000000028e+00
2.350000000000000000e+01 1.469500000000000028e+00
2.250000000000000000e+01 1.474750000000000005e+00
2.220000000000000284e+01 1.480499999999999927e+00
2.270000000000000284e+01 1.485000000000000098e+00
2.300000000000000000e+01 1.493249999999999966e+00
2.310000000000000142e+01 1.496750000000000025e+00
2.280000000000000071e+01 1.500499999999999945e+00
2.340000000000000213e+01 1.500999999999999890e+00
2.190000000000000213e+01 1.504750000000000032e+00
2.360000000000000142e+01 1.507749999999999924e+00
2.420000000000000284e+01 1.518750000000000044e+00
2.460000000000000142e+01 1.532499999999999973e+00
2.370000000000000284e+01 1.536750000000000060e+00
2.380000000000000071e+01 1.563499999999999890e+00
2.330000000000000071e+01 1.574000000000000066e+00
2.430000000000000071e+01 1.575499999999999901e+00
2.390000000000000213e+01 1.580999999999999961e+00
2.410000000000000142e+01 1.586500000000000021e+00
2.440000000000000213e+01 1.606999999999999984e+00
2.400000000000000000e+01 1.612249999999999961e+00
2.560000000000000142e+01 1.619499999999999940e+00
2.450000000000000000e+01 1.619750000000000023e+00
2.490000000000000213e+01 1.645750000000000046e+00
2.550000000000000000e+01 1.647750000000000048e+00
2.470000000000000284e+01 1.651250000000000107e+00
2.540000000000000213e+01 1.651499999999999968e+00
2.520000000000000284e+01 1.652749999999999941e+00
2.510000000000000142e+01 1.657999999999999918e+00
2.500000000000000000e+01 1.665750000000000064e+00
2.580000000000000071e+01 1.681000000000000050e+00
2.530000000000000071e+01 1.692250000000000032e+00
2.480000000000000071e+01 1.701500000000000012e+00
2.570000000000000284e+01 1.725999999999999979e+00
2.600000000000000000e+01 1.730250000000000066e+00
2.700000000000000000e+01 1.731224999999999881e+01
2.630000000000000071e+01 1.758750000000000036e+00
2.650000000000000000e+01 1.767249999999999988e+00
2.590000000000000213e+01 1.776499999999999968e+00
2.730000000000000071e+01 1.893000000000000016e+00
2.740000000000000213e+01 1.907999999999999918e+00
2.780000000000000071e+01 2.037749999999999950e+00
2.690000000000000213e+01 3.480324999999999847e+01
2.640000000000000213e+01 5.499125000000000085e+01
2.770000000000000284e+01 7.075300000000000011e+01
2.760000000000000142e+01 7.329224999999999568e+01
2.840000000000000213e+01 7.522924999999999329e+01
2.800000000000000000e+01 8.094374999999999432e+01
2.820000000000000284e+01 8.236150000000000659e+01
2.790000000000000213e+01 8.244100000000000250e+01
2.850000000000000000e+01 8.543574999999999875e+01
2.880000000000000071e+01 8.549200000000000443e+01
2.750000000000000000e+01 8.552575000000000216e+01
2.920000000000000284e+01 8.622974999999999568e+01
2.910000000000000142e+01 8.645125000000000171e+01
2.970000000000000284e+01 8.712425000000000352e+01
2.720000000000000284e+01 8.751175000000000637e+01
2.620000000000000284e+01 8.807725000000000648e+01
2.990000000000000213e+01 8.859874999999999545e+01
2.660000000000000142e+01 9.089749999999999375e+01
2.610000000000000142e+01 9.142674999999999841e+01
3.140000000000000213e+01 9.216100000000000136e+01
3.000000000000000000e+01 9.226250000000000284e+01
2.810000000000000142e+01 9.235450000000000159e+01
2.680000000000000071e+01 9.245999999999999375e+01
2.900000000000000000e+01 9.277224999999999966e+01
2.930000000000000071e+01 9.279200000000000159e+01
2.950000000000000000e+01 9.300000000000000000e+01
3.070000000000000284e+01 9.321200000000000330e+01
3.030000000000000071e+01 9.362550000000000239e+01
3.040000000000000213e+01 9.370874999999999488e+01
2.940000000000000213e+01 9.377899999999999636e+01
2.670000000000000284e+01 9.419249999999999545e+01
2.890000000000000213e+01 9.456550000000000011e+01
3.010000000000000142e+01 9.463224999999999909e+01
2.980000000000000071e+01 9.471325000000000216e+01
2.710000000000000142e+01 9.537449999999999761e+01
3.050000000000000000e+01 9.600225000000000364e+01
2.860000000000000142e+01 9.601824999999999477e+01
2.870000000000000284e+01 9.630325000000000557e+01
3.020000000000000284e+01 9.684999999999999432e+01
3.350000000000000000e+01 9.687775000000000603e+01
3.120000000000000284e+01 9.695250000000000057e+01
3.180000000000000071e+01 9.699025000000000318e+01
3.570000000000000284e+01 9.726375000000000171e+01
2.960000000000000142e+01 9.727349999999999852e+01
3.239999999999999858e+01 9.735875000000000057e+01
3.260000000000000142e+01 9.735899999999999466e+01
2.830000000000000071e+01 9.743200000000000216e+01
3.450000000000000000e+01 9.753974999999999795e+01
3.170000000000000284e+01 9.755374999999999375e+01
3.160000000000000142e+01 9.758575000000000443e+01
3.339999999999999858e+01 9.760800000000000409e+01
3.150000000000000000e+01 9.763349999999999795e+01
3.320000000000000284e+01 9.764374999999999716e+01
0.000000000000000000e+00 9.765000000000000346e-01
3.190000000000000213e+01 9.766649999999999920e+01
3.090000000000000213e+01 9.767350000000000421e+01
3.220000000000000284e+01 9.771850000000000591e+01
3.660000000000000142e+01 9.776975000000000193e+01
3.610000000000000142e+01 9.777524999999999977e+01
3.700000000000000000e+01 9.777949999999999875e+01
3.080000000000000071e+01 9.778175000000000239e+01
3.210000000000000142e+01 9.786124999999999829e+01
3.250000000000000000e+01 9.788100000000000023e+01
3.289999999999999858e+01 9.789100000000000534e+01
3.270000000000000284e+01 9.796174999999999500e+01
3.500000000000000000e+01 9.802100000000000080e+01
3.330000000000000426e+01 9.816849999999999454e+01
3.389999999999999858e+01 9.818649999999999523e+01
3.489999999999999858e+01 9.819700000000000273e+01
3.470000000000000284e+01 9.820924999999999727e+01
3.380000000000000426e+01 9.823024999999999807e+01
3.539999999999999858e+01 9.824150000000000205e+01
3.439999999999999858e+01 9.824625000000000341e+01
3.110000000000000142e+01 9.826099999999999568e+01
3.460000000000000142e+01 9.826775000000000659e+01
3.130000000000000071e+01 9.828024999999999523e+01
3.400000000000000000e+01 9.828674999999999784e+01
3.420000000000000284e+01 9.830774999999999864e+01
3.060000000000000142e+01 9.833124999999999716e+01
3.100000000000000000e+01 9.833774999999999977e+01
3.360000000000000142e+01 9.835224999999999795e+01
3.620000000000000284e+01 9.836175000000000068e+01
3.410000000000000142e+01 9.837800000000000011e+01
3.589999999999999858e+01 9.838075000000000614e+01
3.550000000000000000e+01 9.838875000000000171e+01
3.430000000000000426e+01 9.843550000000000466e+01
3.230000000000000426e+01 9.843625000000000114e+01
3.200000000000000000e+01 9.845874999999999488e+01
3.530000000000000426e+01 9.846625000000000227e+01
3.760000000000000142e+01 9.849150000000000205e+01
3.730000000000000426e+01 9.849625000000000341e+01
3.310000000000000142e+01 9.851250000000000284e+01
3.650000000000000000e+01 9.851524999999999466e+01
3.670000000000000284e+01 9.851824999999999477e+01
3.710000000000000142e+01 9.852174999999999727e+01
3.370000000000000284e+01 9.852649999999999864e+01
3.720000000000000284e+01 9.853600000000000136e+01
3.560000000000000142e+01 9.855275000000000318e+01
3.510000000000000142e+01 9.855774999999999864e+01
3.830000000000000426e+01 9.857049999999999557e+01
3.520000000000000284e+01 9.859425000000000239e+01
3.820000000000000284e+01 9.860174999999999557e+01
3.280000000000000426e+01 9.862224999999999397e+01
4.120000000000000284e+01 9.865625000000000000e+01
3.810000000000000142e+01 9.867024999999999579e+01
2.000000000000000111e-01 9.867500000000000160e-01
4.330000000000000426e+01 9.867700000000000671e+01
3.800000000000000000e+01 9.869275000000000375e+01
3.990000000000000568e+01 9.869950000000000045e+01
3.930000000000000426e+01 9.874250000000000682e+01
3.920000000000000284e+01 9.876075000000000159e+01
4.010000000000000142e+01 9.876600000000000534e+01
3.870000000000000284e+01 9.877875000000000227e+01
3.630000000000000426e+01 9.878274999999999295e+01
3.880000000000000426e+01 9.878624999999999545e+01
4.000000000000000000e+01 9.878650000000000375e+01
3.600000000000000000e+01 9.880349999999999966e+01
3.680000000000000426e+01 9.881525000000000603e+01
4.110000000000000142e+01 9.882474999999999454e+01
3.780000000000000426e+01 9.883150000000000546e+01
3.789999999999999858e+01 9.884199999999999875e+01
3.890000000000000568e+01 9.884924999999999784e+01
3.639999999999999858e+01 9.886199999999999477e+01
4.610000000000000142e+01 9.886750000000000682e+01
3.980000000000000426e+01 9.887300000000000466e+01
4.240000000000000568e+01 9.887600000000000477e+01
3.860000000000000142e+01 9.888275000000000148e+01
3.300000000000000000e+01 9.888375000000000625e+01
5.240000000000000568e+01 9.888849999999999341e+01
4.340000000000000568e+01 9.889000000000000057e+01
3.950000000000000000e+01 9.889074999999999704e+01
3.750000000000000000e+01 9.889875000000000682e+01
3.960000000000000142e+01 9.890250000000000341e+01
4.930000000000000426e+01 9.891724999999999568e+01
8.000000000000000444e-01 9.892499999999999627e-01
3.580000000000000426e+01 9.892799999999999727e+01
3.480000000000000426e+01 9.893625000000000114e+01
3.770000000000000284e+01 9.894549999999999557e+01
4.920000000000000284e+01 9.894700000000000273e+01
4.190000000000000568e+01 9.895125000000000171e+01
3.739999999999999858e+01 9.896425000000000693e+01
4.090000000000000568e+01 9.897724999999999795e+01
4.050000000000000000e+01 9.899625000000000341e+01
4.150000000000000000e+01 9.900350000000000250e+01
4.220000000000000284e+01 9.900775000000000148e+01
3.840000000000000568e+01 9.901800000000000068e+01
4.100000000000000000e+01 9.903374999999999773e+01
4.070000000000000284e+01 9.903974999999999795e+01
3.970000000000000284e+01 9.904025000000000034e+01
4.300000000000000000e+01 9.904250000000000398e+01
4.360000000000000142e+01 9.904675000000000296e+01
4.450000000000000000e+01 9.904925000000000068e+01
4.130000000000000426e+01 9.905074999999999363e+01
4.740000000000000568e+01 9.905500000000000682e+01
4.380000000000000426e+01 9.906050000000000466e+01
3.689999999999999858e+01 9.906900000000000261e+01
4.080000000000000426e+01 9.907049999999999557e+01
4.350000000000000000e+01 9.907125000000000625e+01
3.900000000000000000e+01 9.907500000000000284e+01
5.880000000000000426e+01 9.907750000000000057e+01
4.520000000000000284e+01 9.908199999999999363e+01
4.180000000000000426e+01 9.908249999999999602e+01
4.530000000000000426e+01 9.909799999999999898e+01
5.130000000000000426e+01 9.910099999999999909e+01
4.160000000000000142e+01 9.911199999999999477e+01
4.880000000000000426e+01 9.911275000000000546e+01
4.140000000000000568e+01 9.911499999999999488e+01
4.580000000000000426e+01 9.911499999999999488e+01
4.060000000000000142e+01 9.912099999999999511e+01
3.910000000000000142e+01 9.912399999999999523e+01
4.210000000000000142e+01 9.912399999999999523e+01
4.720000000000000284e+01 9.912600000000000477e+01
4.250000000000000000e+01 9.912725000000000364e+01
4.900000000000000000e+01 9.912975000000000136e+01
4.670000000000000284e+01 9.913174999999999670e+01
4.170000000000000284e+01 9.913925000000000409e+01
4.810000000000000142e+01 9.914400000000000546e+01
4.780000000000000426e+01 9.914549999999999841e+01
4.260000000000000142e+01 9.915224999999999511e+01
4.940000000000000568e+01 9.915274999999999750e+01
3.850000000000000000e+01 9.915375000000000227e+01
4.030000000000000426e+01 9.915524999999999523e+01
4.890000000000000568e+01 9.915550000000000352e+01
4.020000000000000284e+01 9.915625000000000000e+01
4.290000000000000568e+01 9.915649999999999409e+01
4.310000000000000142e+01 9.915699999999999648e+01
4.040000000000000568e+01 9.916349999999999909e+01
4.490000000000000568e+01 9.916349999999999909e+01
4.680000000000000426e+01 9.916374999999999318e+01
4.280000000000000426e+01 9.916674999999999329e+01
4.500000000000000000e+01 9.916774999999999807e+01
4.710000000000000142e+01 9.916825000000000045e+01
5.370000000000000284e+01 9.916875000000000284e+01
4.850000000000000000e+01 9.917074999999999818e+01
4.800000000000000000e+01 9.917199999999999704e+01
4.410000000000000142e+01 9.917674999999999841e+01
5.330000000000000426e+01 9.917924999999999613e+01
4.840000000000000568e+01 9.918025000000000091e+01
5.360000000000000142e+01 9.918049999999999500e+01
5.940000000000000568e+01 9.918125000000000568e+01
4.790000000000000568e+01 9.918174999999999386e+01
4.270000000000000284e+01 9.919074999999999420e+01
4.320000000000000284e+01 9.919424999999999670e+01
5.660000000000000142e+01 9.919474999999999909e+01
4.200000000000000000e+01 9.919774999999999920e+01
4.760000000000000142e+01 9.919799999999999329e+01
4.620000000000000284e+01 9.920449999999999591e+01
5.340000000000000568e+01 9.920825000000000671e+01
4.230000000000000426e+01 9.920850000000000080e+01
4.590000000000000568e+01 9.920874999999999488e+01
4.830000000000000426e+01 9.921349999999999625e+01
4.420000000000000284e+01 9.921750000000000114e+01
4.370000000000000284e+01 9.921824999999999761e+01
5.480000000000000426e+01 9.921875000000000000e+01
5.190000000000000568e+01 9.922249999999999659e+01
4.750000000000000000e+01 9.922299999999999898e+01
4.440000000000000568e+01 9.922400000000000375e+01
5.040000000000000568e+01 9.922575000000000500e+01
4.960000000000000142e+01 9.922599999999999909e+01
4.700000000000000000e+01 9.922650000000000148e+01
4.990000000000000568e+01 9.922650000000000148e+01
4.550000000000000000e+01 9.922724999999999795e+01
5.110000000000000142e+01 9.922750000000000625e+01
5.620000000000000284e+01 9.922924999999999329e+01
4.970000000000000284e+01 9.923199999999999932e+01
4.430000000000000426e+01 9.923224999999999341e+01
4.770000000000000284e+01 9.923274999999999579e+01
5.030000000000000426e+01 9.923524999999999352e+01
4.390000000000000568e+01 9.924424999999999386e+01
3.940000000000000568e+01 9.924699999999999989e+01
4.630000000000000426e+01 9.924750000000000227e+01
4.560000000000000142e+01 9.924800000000000466e+01
5.450000000000000000e+01 9.924975000000000591e+01
5.740000000000000568e+01 9.925074999999999648e+01
5.050000000000000000e+01 9.925149999999999295e+01
4.730000000000000426e+01 9.925424999999999898e+01
5.590000000000000568e+01 9.925724999999999909e+01
5.770000000000000284e+01 9.926149999999999807e+01
5.010000000000000142e+01 9.926425000000000409e+01
5.670000000000000284e+01 9.926649999999999352e+01
4.650000000000000000e+01 9.926850000000000307e+01
4.460000000000000142e+01 9.927100000000000080e+01
5.070000000000000284e+01 9.927174999999999727e+01
4.400000000000000000e+01 9.927249999999999375e+01
5.570000000000000284e+01 9.927299999999999613e+01
5.090000000000000568e+01 9.927474999999999739e+01
5.150000000000000000e+01 9.927675000000000693e+01
4.820000000000000284e+01 9.928050000000000352e+01
4.600000000000000000e+01 9.928300000000000125e+01
5.460000000000000142e+01 9.928324999999999534e+01
4.570000000000000284e+01 9.928400000000000603e+01
5.600000000000000000e+01 9.928574999999999307e+01
5.180000000000000426e+01 9.928650000000000375e+01
5.020000000000000284e+01 9.928775000000000261e+01
5.350000000000000000e+01 9.929049999999999443e+01
5.280000000000000426e+01 9.929224999999999568e+01
4.540000000000000568e+01 9.929375000000000284e+01
4.660000000000000142e+01 9.929500000000000171e+01
5.170000000000000284e+01 9.929925000000000068e+01
4.690000000000000568e+01 9.929999999999999716e+01
5.680000000000000426e+01 9.930450000000000443e+01
5.750000000000000000e+01 9.930774999999999864e+01
4.640000000000000568e+01 9.930800000000000693e+01
5.860000000000000142e+01 9.931000000000000227e+01
5.710000000000000142e+01 9.931199999999999761e+01
5.550000000000000000e+01 9.932125000000000625e+01
4.980000000000000426e+01 9.932250000000000512e+01
5.290000000000000568e+01 9.932474999999999454e+01
3.000000000000000444e-01 9.932499999999999662e-01
5.120000000000000284e+01 9.932550000000000523e+01
4.480000000000000426e+01 9.932725000000000648e+01
5.840000000000000568e+01 9.932750000000000057e+01
4.510000000000000142e+01 9.933025000000000659e+01
5.530000000000000426e+01 9.933150000000000546e+01
4.950000000000000000e+01 9.933249999999999602e+01
5.160000000000000142e+01 9.933299999999999841e+01
5.700000000000000000e+01 9.933325000000000671e+01
5.610000000000000142e+01 9.933650000000000091e+01
4.470000000000000284e+01 9.933750000000000568e+01
4.870000000000000284e+01 9.933825000000000216e+01
5.500000000000000000e+01 9.933825000000000216e+01
5.490000000000000568e+01 9.933875000000000455e+01
5.380000000000000426e+01 9.934399999999999409e+01
5.580000000000000426e+01 9.934650000000000603e+01
5.060000000000000142e+01 9.934924999999999784e+01
4.910000000000000142e+01 9.934975000000000023e+01
5.560000000000000142e+01 9.935450000000000159e+01
5.100000000000000000e+01 9.935599999999999454e+01
5.870000000000000284e+01 9.935875000000000057e+01
5.260000000000000142e+01 9.936199999999999477e+01
5.790000000000000568e+01 9.936674999999999613e+01
5.970000000000000284e+01 9.936700000000000443e+01
5.540000000000000568e+01 9.936775000000000091e+01
5.410000000000000142e+01 9.936924999999999386e+01
5.470000000000000284e+01 9.937250000000000227e+01
5.000000000000000000e-01 9.937500000000000222e-01
5.220000000000000284e+01 9.937725000000000364e+01
5.230000000000000426e+01 9.938549999999999329e+01
5.400000000000000000e+01 9.938549999999999329e+01
5.200000000000000000e+01 9.938599999999999568e+01
5.310000000000000142e+01 9.938700000000000045e+01
5.080000000000000426e+01 9.938750000000000284e+01
5.650000000000000000e+01 9.939050000000000296e+01
5.630000000000000426e+01 9.939225000000000421e+01
5.270000000000000284e+01 9.939525000000000432e+01
5.320000000000000284e+01 9.939849999999999852e+01
5.210000000000000142e+01 9.940274999999999750e+01
5.920000000000000284e+01 9.940324999999999989e+01
4.860000000000000142e+01 9.940600000000000591e+01
5.300000000000000000e+01 9.940725000000000477e+01
5.390000000000000568e+01 9.940725000000000477e+01
5.910000000000000142e+01 9.941025000000000489e+01
5.760000000000000142e+01 9.941275000000000261e+01
5.960000000000000142e+01 9.941450000000000387e+01
5.820000000000000284e+01 9.941474999999999795e+01
5.800000000000000000e+01 9.941500000000000625e+01
5.730000000000000426e+01 9.941700000000000159e+01
5.890000000000000568e+01 9.941974999999999341e+01
5.430000000000000426e+01 9.942100000000000648e+01
5.510000000000000142e+01 9.942300000000000182e+01
5.420000000000000284e+01 9.942525000000000546e+01
5.000000000000000000e+01 9.942725000000000080e+01
5.520000000000000284e+01 9.942900000000000205e+01
5.930000000000000426e+01 9.942900000000000205e+01
5.850000000000000000e+01 9.943049999999999500e+01
5.780000000000000426e+01 9.943725000000000591e+01
5.690000000000000568e+01 9.943975000000000364e+01
5.950000000000000000e+01 9.944100000000000250e+01
5.980000000000000426e+01 9.944849999999999568e+01
5.640000000000000568e+01 9.945125000000000171e+01
5.720000000000000284e+01 9.946524999999999750e+01
5.140000000000000568e+01 9.946800000000000352e+01
5.990000000000000568e+01 9.947074999999999534e+01
5.810000000000000142e+01 9.947150000000000603e+01
5.250000000000000000e+01 9.947400000000000375e+01
5.900000000000000000e+01 9.949349999999999739e+01
5.830000000000000426e+01 9.951550000000000296e+01
5.440000000000000568e+01 9.952899999999999636e+01
1.100000000000000089e+00 9.965000000000000524e-01
